<?xml version="1.0" encoding="utf-8"?>
<!-- Generator: Adobe Illustrator 23.0.1, SVG Export Plug-In . SVG Version: 6.00 Build 0)  -->
<svg version="1.1" id="Layer_1" xmlns="http://www.w3.org/2000/svg" xmlns:xlink="http://www.w3.org/1999/xlink" x="0px" y="0px"
	 viewBox="0 0 1366 768" style="enable-background:new 0 0 1366 768;" xml:space="preserve">
<style type="text/css">
	.st0{fill:#E0E1E2;}
	.st1{fill:#C5C7C9;}
</style>
<rect x="-0.4" y="0.3" class="st0" width="1366.4" height="767.7"/>
<g>
	<path class="st1" d="M147.3,131.3c-0.2-0.4-0.3-0.8-0.4-1.3h32.3c1-16.8-7.2-27.6-23.5-27.6c-14.5,0-24.3,9.5-24.3,23.8
		c0,1.8,0.1,3.5,0.4,5.1L147.3,131.3L147.3,131.3z M155.8,113.1c5.2,0,8.6,3.6,8.6,8.9h-17.9C147.6,116.7,150.8,113.1,155.8,113.1z"
		/>
	<rect x="187.6" y="85.8" class="st1" width="15.3" height="45.5"/>
	<path class="st1" d="M227.5,131.3c-0.6-1.5-0.9-3.2-0.9-5.2c0-6.7,3.8-11.2,9.3-11.2c4,0,7.1,1.8,9.1,4.8l11.1-6.4
		c-4-6.9-11.4-10.9-20.8-10.9c-14.4,0-24.1,9.5-24.1,23.8c0,1.8,0.2,3.5,0.4,5.1H227.5z"/>
	<path class="st1" d="M274.6,131.3c-0.6-1.5-0.9-3.3-0.9-5.2c0-6.8,4-11.4,10-11.4c6,0,10.1,4.6,10.1,11.4c0,1.9-0.3,3.7-0.9,5.2
		h15.8c0.3-1.7,0.5-3.5,0.5-5.4c0-14.2-10.1-23.5-25.5-23.5s-25.4,9.4-25.4,23.5c0,1.9,0.2,3.7,0.5,5.4H274.6z"/>
	<path class="st1" d="M332.1,131.3v-5c0-6.1,3.4-10.3,8.9-10.4c4.7,0,7.7,3.2,7.7,8.4v7H364v-5c0-6.1,3.4-10.3,8.8-10.4
		c4.7,0,7.7,3.2,7.7,8.4v7h15.3V120c0-10.8-6.6-17.7-16.7-17.7c-7.6,0-13.2,3.5-16.3,10.3c-2.3-6.5-7.9-10.3-15.5-10.3
		c-6.7,0-12,2.8-15.1,8.2v-7.6h-15.2v28.4H332.1z"/>
	<path class="st1" d="M418.2,131.3c-0.2-0.4-0.3-0.8-0.4-1.3h32.3c1-16.8-7.2-27.6-23.5-27.6c-14.5,0-24.3,9.5-24.3,23.8
		c0,1.8,0.1,3.5,0.5,5.1L418.2,131.3L418.2,131.3z M426.7,113.1c5.2,0,8.6,3.6,8.6,8.9h-17.9C418.4,116.7,421.7,113.1,426.7,113.1z"
		/>
	<g>
		<polygon class="st1" points="121.4,131.3 135.4,89.3 119.2,89.3 108.2,131.3 		"/>
		<polygon class="st1" points="69.4,131.3 58.3,89.3 41.3,89.3 55.2,131.3 		"/>
		<polygon class="st1" points="82.2,131.3 88.5,108.7 94.5,131.3 107.6,131.3 96.5,89.3 81.1,89.3 70,131.3 		"/>
	</g>
</g>
</svg>
